C:\Users\thier\OneDrive\Dokumente\Daten IMS\BBW\Modul 319\repos\12_luckynumbers\src\main\java\ch\bbw\luckynumber\LuckyNumberApplication.java
C:\Users\thier\OneDrive\Dokumente\Daten IMS\BBW\Modul 319\repos\12_luckynumbers\src\main\java\ch\bbw\luckynumber\LuckyNumber.java
C:\Users\thier\OneDrive\Dokumente\Daten IMS\BBW\Modul 319\repos\12_luckynumbers\src\main\java\ch\bbw\luckynumber\ViewController.java
C:\Users\thier\OneDrive\Dokumente\Daten IMS\BBW\Modul 319\repos\12_luckynumbers\src\main\java\ch\bbw\luckynumber\ViewData.java
